{
    "title": "Bunnymark",

    "system": {
        "display": {
            "icon": "wabbit_alpha.png",
            "sys_font_color": "#FF0066",
            "sys_font_size": 18,
            "show_fps": true,
            "resizable": false
        }
    },

    "callbacks": {
        "draw_grass": {
            "call": "draw_grass",
            "kwargs": { "img": "Outdoor_01.png" }
        },
        "spawn": {
            "call": "spawn_bunnies",
            "kwargs": { "count": 50 }
        },
        "animate": {
            "call": "animate_bunnies",
            "kwargs": { "gravity": 5 }
        }
    },

    "scenes": {
        "main": {

            "events": [
                {
                    "hooks": [ "scene_change" ],
                    "callbacks": [ "draw_grass" ]
                },
                {
                    "hooks": [ "key_spacebar", "controller_btn_b", "mouse_btn_1" ],
                    "callbacks": [ "spawn" ]
                },
                {
                    "hooks": [ "frame_begin" ],
                    "callbacks": [ "animate" ]
                }
            ]
        }
    }
}
